Zone,Élément,2012,2013,2014,2015,2016,2017
Afghanistan,Population totale,30696958.0,31731688.0,32758020.0,33736494.0,34656032.0,35530081.0
Afrique du Sud,Population totale,52998212.99999999,53767395.99999999,54539571.0,55291225.0,56015473.0,56717155.99999999
Albanie,Population totale,2920039.0,2918978.0,2920775.0,2923352.0000000005,2926348.0,2930187.0
Algérie,Population totale,37565847.0,38338562.00000001,39113312.99999999,39871528.0,40606052.0,41318142.0
Allemagne,Population totale,81066228.0,81265139.00000001,81489660.0,81707789.0,81914672.0,82114224.0
Andorre,Population totale,82431.0,80788.0,79223.0,78014.0,77281.0,76965.0
Angola,Population totale,25096150.0,25998340.0,26920466.0,27859305.0,28813463.0,29784193.0
Anguilla,Population totale,14129.000000000002,14299.000000000002,14459.000000000002,14610.999999999998,14764.000000000002,14909.0
Antigua-et-Barbuda,Population totale,96777.0,97824.0,98875.0,99922.99999999999,100963.0,102012.0
Arabie saoudite,Population totale,29086357.000000004,29944476.000000004,30776722.0,31557144.0,32275687.0,32938212.999999996
Argentine,Population totale,42096739.0,42539925.0,42981515.0,43417765.0,43847430.0,44271041.0
Arménie,Population totale,2881922.0,2893509.0,2906220.0,2916950.0,2924816.0,2930450.0
Aruba,Population totale,102577.00000000001,103187.00000000001,103795.0,104341.00000000001,104822.0,105264.0
Australie,Population totale,22821849.0,23150729.0,23474667.999999996,23799556.0,24125848.0,24450561.0
Autriche,Population totale,8517548.0,8577782.0,8633220.0,8678657.0,8712136.999999998,8735453.000000002
Azerbaïdjan,Population totale,9264917.0,9385293.0,9503771.0,9617484.0,9725376.0,9827589.0
Bahamas,Population totale,372039.0,377240.0,382169.00000000006,386838.0,391232.0,395361.0
Bahreïn,Population totale,1300216.9999999998,1315411.0,1336397.0000000002,1371855.0,1425171.0,1492583.9999999998
Bangladesh,Population totale,155727053.0,157571292.0,159405279.0,161200886.0,162951560.0,164669751.0
Barbade,Population totale,281585.0,282509.0,283385.0,284217.0,284996.0,285719.0
Belgique,Population totale,11083550.0,11151511.999999998,11219161.0,11287940.0,11358378.999999998,11429336.000000002
Belize,Population totale,336700.99999999994,344181.0,351694.0,359288.0,366954.0,374681.0
Bermudes,Population totale,63178.99999999999,62771.0,62382.0,62003.0,61666.00000000001,61349.0
Bhoutan,Population totale,752967.0,764961.0,776448.0,787386.0000000001,797765.0,807610.0
Bolivie (État plurinational de),Population totale,10239004.0,10400264.000000002,10562159.0,10724705.0,10887882.0,11051600.0
Bosnie-Herzégovine,Population totale,3648200.0,3604999.0000000005,3566002.0,3535961.0,3516816.0,3507017.0000000005
Botswana,Population totale,2089315.0,2128507.0,2168573.0,2209197.0,2250260.0,2291661.0
Brunéi Darussalam,Population totale,399748.00000000006,405716.0,411704.0,417542.0,423195.99999999994,428696.99999999994
Brésil,Population totale,200560983.0,202408631.99999997,204213133.0,205962108.0,207652865.0,209288278.00000003
Bulgarie,Population totale,7310383.000000001,7266141.0,7222145.0,7177396.0,7131494.000000001,7084571.0
Burkina Faso,Population totale,16571216.0,17072723.0,17585977.0,18110624.0,18646433.0,19193381.999999996
Burundi,Population totale,9319710.0,9600186.0,9891790.0,10199270.0,10524117.0,10864245.0
Bélarus,Population totale,9471730.0,9478902.0,9484851.0,9485771.999999998,9480042.0,9468338.0
Bénin,Population totale,9729160.0,10004451.0,10286712.0,10575952.0,10872298.0,11175692.0
Cabo Verde,Population totale,513979.00000000006,520106.0,526437.0,532913.0,539560.0,546388.0
Cambodge,Population totale,14776866.000000002,15022692.0,15270790.0,15517635.0,15762370.0,16005373.0
Cameroun,Population totale,21082382.999999996,21655715.0,22239904.0,22834522.0,23439189.0,24053727.000000004
Canada,Population totale,34900705.0,35255495.0,35604727.99999999,35949709.0,36289822.0,36624199.0
Chili,Population totale,17309746.0,17462982.0,17613798.0,17762681.0,17909754.0,18054726.000000004
Chine - RAS de Hong-Kong,Population totale,7106399.0,7148571.0,7194563.0,7245701.0,7302843.000000001,7364883.000000001
Chine - RAS de Macao,Population totale,562531.0,575841.0,588781.0,600942.0,612166.9999999999,622567.0
"Chine, Taiwan Province de",Population totale,23263897.0,23339857.999999996,23413652.0,23485755.0,23556706.000000004,23626456.000000004
"Chine, continentale",Population totale,1375198619.0,1382793211.9999998,1390110388.0,1397028553.0,1403500365.0,1409517397.0
Chypre,Population totale,1135062.0,1143896.0,1152309.0,1160985.0,1170125.0,1179551.0000000002
Colombie,Population totale,46881475.0,47342981.0,47791910.99999999,48228697.0,48653419.0,49065615.0
Comores,Population totale,723868.0,741500.0,759385.0,777424.0,795601.0000000001,813911.9999999999
Congo,Population totale,4633363.0,4751393.0,4871101.0,4995648.0,5125821.0,5260750.0
Costa Rica,Population totale,4654122.0,4706401.0,4757575.0,4807852.0,4857274.0,4905769.0
Croatie,Population totale,4296526.0,4277806.0,4257532.999999999,4236016.0,4213265.0,4189353.0
Cuba,Population totale,11382146.0,11412167.0,11439767.0,11461431.999999998,11475982.0,11484636.0
Côte d'Ivoire,Population totale,21418603.0,21966312.0,22531350.0,23108472.0,23695918.999999996,24294750.0
Danemark,Population totale,5610660.0,5637816.999999999,5663914.000000001,5688695.0,5711870.0,5733550.999999999
Djibouti,Population totale,881185.0,896688.0,912164.0,927414.0,942333.0000000001,956985.0
Dominique,Population totale,72044.0,72400.0,72778.0,73161.99999999999,73543.0,73925.0
El Salvador,Population totale,6221246.0,6250776.999999999,6281189.0,6312478.0,6344722.0,6377853.0
Espagne,Population totale,46857404.0,46697553.0,46521827.00000001,46397664.00000001,46347575.99999999,46354321.0
Estonie,Population totale,1324934.0,1321560.0,1318359.0,1315321.0000000002,1312442.0,1309632.0
Eswatini,Population totale,1248158.0000000002,1271456.0000000002,1295097.0,1319011.0,1343098.0,1367254.0
Fidji,Population totale,873596.0,879715.0,885806.0,892148.9999999999,898760.0,905502.0
Finlande,Population totale,5412980.0,5436616.0,5459717.0,5481965.999999999,5503132.0,5523231.0
France,Population totale,63639873.0,63919917.0,64190638.0,64457200.99999999,64720690.0,64979547.99999999
Fédération de Russie,Population totale,143420596.99999997,143597230.0,143761378.0,143888004.00000003,143964513.0,143989754.00000003
Gabon,Population totale,1756817.0,1817271.0,1875713.0,1930175.0,1979786.0,2025137.0000000002
Gambie,Population totale,1802125.0,1859323.9999999998,1917852.0,1977590.0,2038501.0,2100567.9999999995
Ghana,Population totale,25733049.0,26346251.0,26962563.0,27582821.0,28206728.0,28833629.0
Gibraltar,Population totale,33623.00000000001,33830.99999999999,34038.00000000001,34228.0,34408.0,34571.0
Grenade,Population totale,105481.00000000001,105908.99999999999,106360.0,106823.0,107317.0,107825.0
Groenland,Population totale,56470.0,56413.99999999999,56382.0,56376.99999999999,56412.0,56480.0
Grèce,Population totale,11378257.0,11321300.0,11264726.0,11217800.0,11183716.0,11159773.000000002
Guadeloupe,Population totale,451602.0,451338.0,450884.0,450418.0,449975.0,449568.00000000006
Guam,Population totale,159972.99999999997,160375.0,160967.0,161797.0,162896.00000000003,164229.0
Guatemala,Population totale,15271056.0,15596214.0,15923559.0,16252428.999999998,16582468.999999998,16913503.0
Guinée,Population totale,11281469.0,11536615.0,11805508.999999998,12091533.000000002,12395924.0,12717176.000000002
Guinée équatoriale,Population totale,1038593.0000000001,1083746.0,1129424.0,1175389.0,1221490.0,1267688.9999999998
Guinée-Bissau,Population totale,1638139.0,1681495.0,1725744.0,1770526.0,1815697.9999999998,1861283.0
Guyana,Population totale,753091.0,758081.0,763393.0,768513.9999999999,773303.0,777858.9999999999
Guyane française,Population totale,247463.0,254503.0,261623.0,268691.0,275712.99999999994,282731.0
Géorgie,Population totale,4107719.0,4045910.0,3992345.9999999995,3951524.0000000005,3925405.0,3912060.9999999995
Haïti,Population totale,10289210.0,10431776.0,10572466.0,10711061.000000002,10847333.999999998,10981229.0
Honduras,Population totale,8505646.0,8657785.0,8809216.0,8960829.0,9112867.0,9265067.0
Hongrie,Population totale,9869684.000000002,9841697.0,9813335.0,9783925.0,9753280.999999998,9721559.000000002
Iles Anglo-Normandes,Population totale,161358.0,162180.0,162969.0,163757.99999999997,164541.0,165314.00000000003
Inde,Population totale,1263065852.0,1278562207.0,1293859294.0,1309053980.0,1324171354.0,1339180127.0
Indonésie,Population totale,248883232.0,252032263.0,255131116.0,258162113.0,261115456.0,263991378.99999997
Iran (République islamique d'),Population totale,76453574.00000001,77435384.0,78411092.0,79360487.00000001,80277428.0,81162788.0
Iraq,Population totale,32776571.000000004,33883145.0,35006080.0,36115649.0,37202572.0,38274617.99999999
Irlande,Population totale,4678117.0,4681967.000000001,4686347.0,4700107.0,4726077.999999999,4761657.0
Islande,Population totale,325526.0,327029.0,328459.0,330243.00000000006,332474.0,335025.0
Israël,Population totale,7699105.0,7821105.0,7941329.000000001,8064547.0,8191828.0,8321570.0
Italie,Population totale,59733834.0,59668000.0,59585668.0,59504212.0,59429937.99999999,59359900.0
Jamaïque,Population totale,2840992.0,2851807.0000000005,2862087.0,2871934.0,2881355.0,2890299.0000000005
Japon,Population totale,128426384.0,128312920.0,128162873.0,127974958.00000001,127748513.0,127484450.0
Jordanie,Population totale,7992573.0,8413464.0,8809306.0,9159302.0,9455802.0,9702353.000000002
Kazakhstan,Population totale,16921179.0,17207256.999999996,17487779.0,17749648.0,17987736.0,18204499.0
Kenya,Population totale,43646629.0,44826849.0,46024250.0,47236259.00000001,48461567.0,49699862.0
Kirghizistan,Population totale,5594108.0,5683808.000000001,5774566.0,5865401.0,5955734.0,6045116.999999999
Kiribati,Population totale,106613.0,108535.0,110458.0,112407.00000000001,114395.0,116398.0
Koweït,Population totale,3395555.9999999995,3598385.0,3782450.0,3935794.0000000005,4052584.0000000005,4136528.0000000005
Lesotho,Population totale,2089928.0,2117361.0,2145785.0,2174645.0,2203821.0,2233339.0
Lettonie,Population totale,2066373.9999999998,2040783.9999999998,2016125.0,1992662.9999999998,1970530.0,1949670.0
Liban,Population totale,4916404.0,5276102.0,5603279.0,5851479.0,6006668.000000001,6082357.0
Libye,Population totale,6198258.000000001,6195970.0,6204108.0,6234955.0,6293253.000000001,6374616.0
Libéria,Population totale,4181563.0,4286291.0,4390737.0,4499621.0,4613823.0,4731906.0
Liechtenstein,Population totale,36545.0,36834.0,37126.99999999999,37403.0,37666.0,37922.0
Lituanie,Population totale,3037245.9999999995,2997334.0000000005,2961845.9999999995,2931926.0,2908249.0000000005,2890297.0
Luxembourg,Population totale,532387.0,544721.0,556316.0,566741.0,575747.0,583455.0
Macédoine du Nord,Population totale,2074036.0,2075739.0,2077495.0,2079308.0,2081206.0000000002,2083159.9999999998
Madagascar,Population totale,22346572.999999996,22961146.0,23589801.0,24234088.0,24894551.0,25570895.0
Malaisie,Population totale,29170456.000000004,29706724.0,30228017.000000004,30723155.0,31187265.0,31624264.0
Malawi,Population totale,16097305.0,16577147.0,17068838.0,17573607.0,18091575.0,18622104.0
Maldives,Population totale,386203.00000000006,397397.0,408246.99999999994,418403.0,427756.0,436330.0
Mali,Population totale,16006670.0,16477818.0,16962846.0,17467905.0,17994837.0,18541980.0
Malte,Population totale,420789.0,423246.0,425570.0,427616.0,429361.99999999994,430835.0
Maroc,Population totale,33333788.999999996,33824769.0,34318082.0,34803322.0,35276786.0,35739580.0
Martinique,Population totale,391164.0,389050.0,387204.0,385842.0,385103.0,384895.99999999994
Maurice,Population totale,1253371.0,1255290.0,1257219.0,1259456.0000000002,1262132.0,1265138.0
Mauritanie,Population totale,3830239.0,3946170.0,4063920.0,4182340.9999999995,4301018.0,4420184.0
Mayotte,Population totale,221122.0,227351.0,233638.0,240020.0,246489.0,253045.0
Mexique,Population totale,120828306.99999999,122535969.0,124221600.0,125890949.00000001,127540423.00000001,129163276.0
Micronésie (États fédérés de),Population totale,103502.99999999999,103702.00000000001,104015.0,104433.0,104937.00000000001,105544.0
Monaco,Population totale,37783.0,37971.0,38132.0,38306.99999999999,38499.0,38695.0
Mongolie,Population totale,2814225.9999999995,2869107.0,2923895.9999999995,2976877.0,3027397.9999999995,3075647.0
Montserrat,Population totale,5031.000000000001,5068.000000000001,5098.0,5124.0,5152.0,5177.000000000001
Monténégro,Population totale,626386.0,627094.0,627674.0,628178.0,628615.0,628960.0
Mozambique,Population totale,25676606.0,26434372.000000004,27212382.0,28010691.000000004,28829476.000000004,29668834.0
Myanmar,Population totale,50986514.0,51448196.0,51924182.0,52403669.0,52885223.0,53370609.00000001
Namibie,Population totale,2263933.9999999995,2316520.0,2370992.0,2425561.0,2479712.9999999995,2533794.0
Nauru,Population totale,10478.0,10790.0,11070.0,11260.0,11347.000000000002,11359.000000000002
Nicaragua,Population totale,5877108.0,5945746.999999999,6013996.999999999,6082035.0,6149928.000000001,6217581.0
Niger,Population totale,17731634.0,18426372.0,19148218.999999996,19896965.0,20672987.0,21477348.0
Nigéria,Population totale,167297284.0,171829303.0,176460501.99999997,181181743.99999997,185989640.0,190886311.00000003
Nioué,Population totale,1623.0000000000002,1623.0000000000002,1615.9999999999998,1629.0,1624.0,1618.0
Norvège,Population totale,5012007.000000001,5077101.0,5140311.0,5199835.999999999,5254694.0,5305383.000000001
Nouvelle-Calédonie,Population totale,258274.99999999997,261889.0,265497.0,269091.0,272677.0,276255.0
Nouvelle-Zélande,Population totale,4467742.999999999,4517527.0,4566700.0,4614532.0,4660833.0,4705818.0
Népal,Population totale,27649925.0,27985310.0,28323241.0,28656282.000000004,28982771.0,29304998.0
Oman,Population totale,3464644.0,3711481.0,3960925.0,4199810.0,4424762.0,4636262.0
Ouganda,Population totale,36306796.0,37553726.0,38833337.99999999,40144870.0,41487965.0,42862958.0
Ouzbékistan,Population totale,29540819.0,30019734.0,30499618.0,30976021.0,31446795.0,31910641.0
Pakistan,Population totale,177911533.0,181712595.0,185546256.99999997,189380513.0,193203476.00000003,197015955.0
Palaos,Population totale,20758.000000000004,20920.0,21094.0,21288.0,21503.0,21729.0
Palestine,Population totale,4294960.0,4414644.0,4537425.0,4662884.0,4790705.0,4920724.0
Panama,Population totale,3772938.0,3838462.0,3903986.0,3969249.0000000005,4034119.0,4098587.0000000005
Papouasie-Nouvelle-Guinée,Population totale,7430835.999999999,7592865.0,7755785.0,7919825.0,8084991.0,8251162.0
Paraguay,Population totale,6379219.0,6465740.0,6552584.0,6639119.000000001,6725308.000000001,6811297.0
Pays-Bas,Population totale,16789095.0,16839699.0,16889356.0,16938499.0,16987330.0,17035938.000000004
Philippines,Population totale,96866642.0,98481031.99999999,100102249.00000001,101716359.0,103320222.0,104918090.0
Pologne,Population totale,38317404.0,38309451.0,38293060.0,38265226.0,38224410.0,38170712.0
Polynésie française,Population totale,271703.0,273528.0,275484.00000000006,277690.0,280207.99999999994,283007.0
Porto Rico,Population totale,3697575.9999999995,3688723.0,3680715.0,3673728.0,3667903.0,3663131.0
Portugal,Population totale,10581821.000000002,10527674.0,10471168.0,10418473.0,10371627.0,10329506.0
Pérou,Population totale,30158966.0,30565716.0,30973354.0,31376671.000000004,31773839.0,32165485.0
Qatar,Population totale,2109567.9999999995,2250473.0,2374419.0,2481538.9999999995,2569804.0,2639211.0
Roumanie,Population totale,20171255.0,20068201.0,19972736.0,19876621.0,19778083.0,19679306.0
Royaume-Uni,Population totale,64250330.0,64641110.0,65015685.99999999,65397080.0,65788574.00000001,66181585.00000001
Rwanda,Population totale,10788853.000000002,11065151.000000002,11345357.0,11629553.0,11917508.0,12208407.0
République arabe syrienne,Population totale,20420701.0,19809141.0,19203090.0,18734987.0,18430453.0,18269868.000000004
République centrafricaine,Population totale,4490416.0,4499653.0,4515392.0,4546100.0,4594621.0,4659080.0
République de Corée,Population totale,49952244.00000001,50169242.0,50385560.0,50593662.00000001,50791919.0,50982212.0
République de Moldova,Population totale,4073703.0,4071964.0000000005,4069939.0000000005,4065980.0,4059607.9999999995,4051212.0
République dominicaine,Population totale,10154950.0,10281296.0,10405844.000000002,10528393.999999998,10648791.000000002,10766998.0
République démocratique du Congo,Population totale,68978682.0,71316033.0,73722860.0,76196619.0,78736152.99999999,81339988.0
République démocratique populaire lao,Population totale,6415169.0,6494557.0,6576397.0,6663967.0,6758353.0,6858160.0
République populaire démocratique de Corée,Population totale,24854034.0,24985976.000000004,25116362.999999996,25243917.0,25368620.0,25490965.0
République-Unie de Tanzanie,Population totale,49082997.0,50636595.0,52234869.00000001,53879957.0,55572200.99999999,57310019.0
Réunion,Population totale,843906.9999999999,850400.0,856867.0,863363.0,869925.0,876562.0
Sahara occidental,Population totale,495772.0,504855.0,514991.0,526216.0,538755.0,552628.0
Saint-Kitts-et-Nevis,Population totale,52591.0,53169.0,53739.0,54288.00000000001,54821.00000000001,55345.0
Saint-Marin,Population totale,31914.0,32303.000000000004,32656.999999999996,32960.0,33203.0,33400.0
Saint-Pierre-et-Miquelon,Population totale,6276.0,6273.0,6277.0,6290.0,6305.0,6320.0
Saint-Siège,Population totale,804.0,800.9999999999999,800.0,802.9999999999999,800.9999999999999,792.0
Saint-Vincent-et-les Grenadines,Population totale,109327.99999999999,109320.0,109357.00000000001,109455.0,109642.99999999999,109897.0
"Sainte-Hélène, Ascension et Tristan de Cunha",Population totale,4117.0,4081.0000000000005,4053.9999999999995,4034.0,4035.0,4048.9999999999995
Sainte-Lucie,Population totale,174835.0,175660.0,176421.0,177206.0,178015.0,178844.00000000003
Samoa,Population totale,189194.00000000003,190757.0,192290.0,193759.0,195125.0,196440.0
Samoa américaines,Population totale,55230.0,55306.99999999999,55437.0,55537.0,55599.0,55641.00000000001
Sao Tomé-et-Principe,Population totale,182889.0,187045.0,191266.0,195553.0,199910.0,204327.0
Serbie,Population totale,8956984.0,8920215.0,8884712.0,8851280.0,8820083.0,8790574.0
Seychelles,Population totale,92285.0,92765.0,93253.99999999999,93742.0,94228.0,94737.00000000001
Sierra Leone,Population totale,6766103.0,6922079.000000001,7079161.999999999,7237025.0,7396190.0,7557212.0
Singapour,Population totale,5270958.000000001,5360837.0,5448342.0,5535262.0,5622455.0,5708844.0
Slovaquie,Population totale,5417070.0,5425130.0,5432840.999999999,5439318.0,5444218.000000001,5447661.999999999
Slovénie,Population totale,2060389.9999999998,2066119.0000000002,2070844.9999999998,2074788.0,2077862.0,2079976.0
Somalie,Population totale,12763776.000000002,13132348.999999998,13513125.0,13908128.999999998,14317996.000000002,14742523.000000002
Soudan,Population totale,35990192.0,36849918.0,37737913.0,38647803.0,39578828.0,40533330.0
Soudan du Sud,Population totale,10818258.0,11177490.0,11530971.000000002,11882136.0,12230730.0,12575714.0
Sri Lanka,Population totale,20424555.0,20527233.0,20623564.0,20714040.0,20798492.0,20876917.0
Suisse,Population totale,8031670.0,8132674.0,8229629.000000001,8319769.0,8401739.0,8476005.0
Suriname,Population totale,537077.0,542540.0,547928.0,553208.0000000001,558368.0,563401.9999999999
Suède,Population totale,9540907.0,9615247.0,9689376.0,9763565.0,9837533.000000002,9910701.0
Sénégal,Population totale,13703513.0,14120320.0,14546111.0,14976993.999999998,15411614.0,15850567.0
Tadjikistan,Population totale,7995062.0,8177809.0,8362745.000000001,8548651.0,8734951.0,8921343.0
Tchad,Population totale,12705135.0,13133589.0,13569438.0,14009413.0,14452543.0,14899993.999999998
Tchéquie (la),Population totale,10586755.0,10594481.000000002,10598526.000000002,10603761.999999998,10610947.0,10618303.0
Thaïlande,Population totale,67843979.0,68143065.0,68416772.0,68657600.0,68863514.00000001,69037512.99999999
Timor-Leste,Population totale,1156760.0,1184366.0,1212813.9999999998,1240976.9999999998,1268671.0,1296311.0000000002
Togo,Population totale,6859482.0,7042948.0,7228915.0,7416802.0,7606374.0,7797694.0
Tokélaou,Population totale,1167.0,1187.0,1219.0,1252.0,1281.9999999999998,1300.0
Tonga,Population totale,104951.00000000001,105327.99999999999,105782.00000000001,106363.99999999999,107122.00000000001,108020.0
Trinité-et-Tobago,Population totale,1341588.0,1348247.9999999998,1354493.0,1360092.0,1364962.0000000002,1369125.0
Tunisie,Population totale,10886668.0,11014558.0,11143908.000000002,11273661.0,11403248.0,11532127.0
Turkménistan,Population totale,5267839.0,5366276.999999999,5466241.0,5565284.000000001,5662544.0,5758075.0
Turquie,Population totale,74569867.0,75787333.0,77030628.0,78271472.00000001,79512425.99999999,80745020.0
Tuvalu,Population totale,10725.0,10819.0,10908.0,11001.0,11097.000000000002,11192.0
Ukraine,Population totale,45349333.0,45115785.0,44883426.0,44657704.00000001,44438625.0,44222947.0
Uruguay,Population totale,3396777.0,3408005.0,3419546.0,3431552.0,3444006.0,3456750.0
Vanuatu,Population totale,247485.0,253142.0,258850.00000000003,264603.0,270402.0,276244.0
Venezuela (République bolivarienne du),Population totale,29893080.0,30317848.0,30738377.999999996,31155134.0,31568179.0,31977065.0
Viet Nam,Population totale,90451881.0,91497725.0,92544915.0,93571567.0,94569071.99999999,95540800.0
Yémen,Population totale,24909968.999999996,25576322.0,26246327.0,26916207.000000004,27584213.0,28250420.0
Zambie,Population totale,14699937.0,15153210.0,15620973.999999998,16100587.0,16591390.0,17094130.0
Zimbabwe,Population totale,14710826.0,15054506.000000002,15411675.0,15777451.0,16150362.0,16529903.999999998
Égypte,Population totale,87813257.0,89807433.0,91812565.99999999,93778171.99999999,95688681.0,97553151.0
Émirats arabes unis,Population totale,8900453.000000002,9006263.0,9070867.0,9154302.0,9269612.0,9400145.0
Équateur,Population totale,15419666.000000002,15661546.999999998,15903112.0,16144368.0,16385068.0,16624858.0
Érythrée,Population totale,4560977.0,4650998.0,4746045.0,4846976.0,4954645.0,5068831.0
États-Unis d'Amérique,Population totale,313335423.0,315536676.00000006,317718779.0,319929162.0,322179605.0,324459463.0
Éthiopie,Population totale,92444183.0,94887724.0,97366774.0,99873033.00000001,102403196.0,104957438.00000001
Île de Man,Population totale,81406.0,82012.99999999999,82590.0,83167.0,83737.00000000001,84287.0
Îles Caïmanes,Population totale,57523.0,58371.0,59172.0,59963.0,60765.0,61559.0
Îles Cook,Population totale,17996.0,17767.0,17588.0,17449.0,17379.0,17380.0
Îles Falkland,Population totale,2858.0,2870.0,2887.0,2898.0,2910.0,2910.0
Îles Féroé,Population totale,48666.00000000001,48747.0,48842.0,48965.0,49117.0,49290.0
Îles Mariannes du Nord,Population totale,53718.0,54036.0,54468.0,54816.0,55023.0,55144.0
Îles Marshall,Population totale,52663.00000000001,52793.0,52898.0,52994.0,53066.0,53126.99999999999
Îles Salomon,Population totale,551531.0,563513.0,575504.0,587482.0,599419.0,611343.0000000001
Îles Turques et Caïques,Population totale,32430.999999999996,33108.00000000001,33739.00000000001,34339.0,34900.0,35446.0
Îles Vierges américaines,Population totale,105557.0,105311.0,105110.0,104977.0,104913.0,104901.00000000001
Îles Vierges britanniques,Population totale,28509.0,29055.999999999996,29588.0,30113.000000000004,30660.999999999996,31195.999999999996
Îles Wallis et Futuna,Population totale,12835.999999999998,12550.999999999998,12285.0,12065.999999999998,11899.0,11773.0
