Code Domaine,Domaine,Code Pays,Pays,Code Élément,Élément,Code Produit,Produit,Code Année,Année,Unité,Valeur,Symbole,Description du Symbole
"FBS","Bilans Alimentaires","2","Afghanistan","5142","Nourriture","2511","Blé","2013","2013","Milliers de tonnes","4895","S","Données standardisées"
"FBS","Bilans Alimentaires","2","Afghanistan","5142","Nourriture","2805","Riz (Eq Blanchi)","2013","2013","Milliers de tonnes","422","S","Données standardisées"
"FBS","Bilans Alimentaires","2","Afghanistan","5142","Nourriture","2513","Orge","2013","2013","Milliers de tonnes","89","S","Données standardisées"
"FBS","Bilans Alimentaires","2","Afghanistan","5142","Nourriture","2514","Maïs","2013","2013","Milliers de tonnes","76","S","Données standardisées"
"FBS","Bilans Alimentaires","2","Afghanistan","5142","Nourriture","2517","Millet","2013","2013","Milliers de tonnes","12","S","Données standardisées"
"FBS","Bilans Alimentaires","2","Afghanistan","5142","Nourriture","2520","Céréales, Autres","2013","2013","Milliers de tonnes","0","S","Données standardisées"
"FBS","Bilans Alimentaires","2","Afghanistan","5142","Nourriture","2531","Pommes de Terre","2013","2013","Milliers de tonnes","230","S","Données standardisées"
"FBS","Bilans Alimentaires","2","Afghanistan","5142","Nourriture","2542","Sucre Eq Brut","2013","2013","Milliers de tonnes","255","S","Données standardisées"
"FBS","Bilans Alimentaires","2","Afghanistan","5142","Nourriture","2543","Edulcorants Autres","2013","2013","Milliers de tonnes","16","S","Données standardisées"
"FBS","Bilans Alimentaires","2","Afghanistan","5142","Nourriture","2745","Miel","2013","2013","Milliers de tonnes","2","S","Données standardisées"
"FBS","Bilans Alimentaires","2","Afghanistan","5142","Nourriture","2549","Légumineuses Autres","2013","2013","Milliers de tonnes","74","S","Données standardisées"
"FBS","Bilans Alimentaires","2","Afghanistan","5142","Nourriture","2551","Noix","2013","2013","Milliers de tonnes","44","S","Données standardisées"
"FBS","Bilans Alimentaires","2","Afghanistan","5142","Nourriture","2560","Coco (Incl Coprah)","2013","2013","Milliers de tonnes","0","S","Données standardisées"
"FBS","Bilans Alimentaires","2","Afghanistan","5142","Nourriture","2561","Sésame","2013","2013","Milliers de tonnes","16","S","Données standardisées"
"FBS","Bilans Alimentaires","2","Afghanistan","5142","Nourriture","2563","Olives","2013","2013","Milliers de tonnes","2","S","Données standardisées"
"FBS","Bilans Alimentaires","2","Afghanistan","5142","Nourriture","2571","Huile de Soja","2013","2013","Milliers de tonnes","16","S","Données standardisées"
"FBS","Bilans Alimentaires","2","Afghanistan","5142","Nourriture","2572","Huile d'Arachide","2013","2013","Milliers de tonnes","0","S","Données standardisées"
"FBS","Bilans Alimentaires","2","Afghanistan","5142","Nourriture","2573","Huile de Tournesol","2013","2013","Milliers de tonnes","23","S","Données standardisées"
"FBS","Bilans Alimentaires","2","Afghanistan","5142","Nourriture","2574","Huile de Colza&Moutarde","2013","2013","Milliers de tonnes","2","S","Données standardisées"
"FBS","Bilans Alimentaires","2","Afghanistan","5142","Nourriture","2575","Huile Graines de Coton","2013","2013","Milliers de tonnes","4","S","Données standardisées"
"FBS","Bilans Alimentaires","2","Afghanistan","5142","Nourriture","2577","Huile de Palme","2013","2013","Milliers de tonnes","64","S","Données standardisées"
"FBS","Bilans Alimentaires","2","Afghanistan","5142","Nourriture","2579","Huile de Sésame","2013","2013","Milliers de tonnes","1","S","Données standardisées"
"FBS","Bilans Alimentaires","2","Afghanistan","5142","Nourriture","2580","Huile d'Olive","2013","2013","Milliers de tonnes","1","S","Données standardisées"
"FBS","Bilans Alimentaires","2","Afghanistan","5142","Nourriture","2586","Huil Plantes Oleif Autr","2013","2013","Milliers de tonnes","2","S","Données standardisées"
"FBS","Bilans Alimentaires","2","Afghanistan","5142","Nourriture","2601","Tomates","2013","2013","Milliers de tonnes","0","S","Données standardisées"
"FBS","Bilans Alimentaires","2","Afghanistan","5142","Nourriture","2605","Légumes, Autres","2013","2013","Milliers de tonnes","885","S","Données standardisées"
"FBS","Bilans Alimentaires","2","Afghanistan","5142","Nourriture","2611","Oranges, Mandarines","2013","2013","Milliers de tonnes","145","S","Données standardisées"
"FBS","Bilans Alimentaires","2","Afghanistan","5142","Nourriture","2614","Agrumes, Autres","2013","2013","Milliers de tonnes","39","S","Données standardisées"
"FBS","Bilans Alimentaires","2","Afghanistan","5142","Nourriture","2615","Bananes","2013","2013","Milliers de tonnes","82","S","Données standardisées"
"FBS","Bilans Alimentaires","2","Afghanistan","5142","Nourriture","2617","Pommes","2013","2013","Milliers de tonnes","68","S","Données standardisées"
"FBS","Bilans Alimentaires","2","Afghanistan","5142","Nourriture","2618","Ananas","2013","2013","Milliers de tonnes","0","S","Données standardisées"
"FBS","Bilans Alimentaires","2","Afghanistan","5142","Nourriture","2619","Dattes","2013","2013","Milliers de tonnes","1","S","Données standardisées"
"FBS","Bilans Alimentaires","2","Afghanistan","5142","Nourriture","2620","Raisin","2013","2013","Milliers de tonnes","483","S","Données standardisées"
"FBS","Bilans Alimentaires","2","Afghanistan","5142","Nourriture","2625","Fruits, Autres","2013","2013","Milliers de tonnes","223","S","Données standardisées"
"FBS","Bilans Alimentaires","2","Afghanistan","5142","Nourriture","2630","Café","2013","2013","Milliers de tonnes","0","S","Données standardisées"
"FBS","Bilans Alimentaires","2","Afghanistan","5142","Nourriture","2633","Feve de Cacao","2013","2013","Milliers de tonnes","1","S","Données standardisées"
"FBS","Bilans Alimentaires","2","Afghanistan","5142","Nourriture","2635","Thé","2013","2013","Milliers de tonnes","107","S","Données standardisées"
"FBS","Bilans Alimentaires","2","Afghanistan","5142","Nourriture","2640","Poivre","2013","2013","Milliers de tonnes","0","S","Données standardisées"
"FBS","Bilans Alimentaires","2","Afghanistan","5142","Nourriture","2645","Épices, Autres","2013","2013","Milliers de tonnes","8","S","Données standardisées"
"FBS","Bilans Alimentaires","2","Afghanistan","5142","Nourriture","2655","Vin","2013","2013","Milliers de tonnes","0","S","Données standardisées"
"FBS","Bilans Alimentaires","2","Afghanistan","5142","Nourriture","2656","Bière","2013","2013","Milliers de tonnes","3","S","Données standardisées"
"FBS","Bilans Alimentaires","2","Afghanistan","5142","Nourriture","2658","Boissons Alcooliques","2013","2013","Milliers de tonnes","0","S","Données standardisées"
"FBS","Bilans Alimentaires","2","Afghanistan","5142","Nourriture","2680","Aliments pour enfants","2013","2013","Milliers de tonnes","2","S","Données standardisées"
