Code Domaine,Domaine,Code Pays,Pays,Code Élément,Élément,Code Produit,Produit,Code Année,Année,Unité,Valeur,Symbole,Description du Symbole
"FBS","Bilans Alimentaires","5000","Monde","5521","Aliments pour animaux","2905","Cèrèales - Excl Bière","2013","2013","Milliers de tonnes","873548","A","Agrégat, peut inclure des données officielles, semi-officielles, estimées ou calculées"
"FBS","Bilans Alimentaires","5000","Monde","5142","Nourriture","2905","Cèrèales - Excl Bière","2013","2013","Milliers de tonnes","1029021","A","Agrégat, peut inclure des données officielles, semi-officielles, estimées ou calculées"
